{
    "$id": "http://example.com/schemas/change-review-evidence-collection",
    "$schema": "http://json-schema.org/draft-07/schema#",
    "title": "Change Review Evidence Collection",
    "type": "object",
    "properties": {
        "elements": {
            "type": "array",
            "items": [{
                "type": "object",
                "allOf": [{"$ref": "change-review-evidence.schema.json"}]
            }]
        }
    }
}
