{
    "$id": "http://example.com/schemas/config",
    "$schema": "http://json-schema.org/draft-07/schema#",
    "title": "Config",
    "type": "object",
    "properties": {
        "EVIDENCE_TYPES": {
            "description": "List of evidence types",
            "type": "array",
            "minItems": 1,
            "uniqueItems": true,
            "contains": {
                "type": "string",
              	"enum": ["change-review"]
            },
             "items": {
                "description": "Evidence type",
                "type": "string"
            }
        },
        "PROTOCOL": {
            "description": "Host protocol",
            "type": "string",
            "enum": ["http", "https"]
        },
        "GIT_EMAIL": {
            "description": "Email address for pushing evidence as git notes",
            "type": "string"
        },
        "DATA_DIR": {
            "description": "Absolute path of data directory",
            "type": "string"
        },
        "POLICY": {
            "description": "Key is host name",
            "type": "object",
            "patternProperties": {
                "^[\\w\\.-]+$": {
                    "description": "Key is project name or default",
                    "type": "object",
                    "patternProperties": {
                        "^[\\w\\.-/]+$": {
                            "$ref": "#/definitions/policy"
                        }
                    }
                }
            }
        }
    },
    "required": ["EVIDENCE_TYPES"],
    "definitions": {
        "policy": {
            "type": "object",
            "properties": {
                "approval-policy": {
                    "type": "object",
                    "properties": {
                        "pattern-list": {
                            "type": "array",
                            "items": {
                                "type": "object",
                                "properties": {
                                    "text": {
                                        "type": "string"
                                    },
                                    "count": {
                                        "type": "integer"
                                    }
                                }
                            }
                        },
                        "unique-approvers": {
                            "type": "integer"
                        },
                        "gitlab-ee-approvals": {
                            "type": "boolean"
                        }
                    }
                }
            }
        }
    }
}