{
    "$id": "http://example.com/schemas/history-collection",
    "$schema": "http://json-schema.org/draft-07/schema#",
    "title": "History Collection",
    "type": "object",
    "properties": {
        "elements": {
            "type": "array",
            "items": [{
                "type": "object",
                "allOf": [{"$ref": "history.schema.json"}]
            }]
        }
    }
}
